<?xml version="1.0" encoding="UTF-8"?>
<svg width="30px" height="22px" viewBox="0 0 30 22" version="1.1" xmlns="http://www.w3.org/2000/svg" xmlns:xlink="http://www.w3.org/1999/xlink">
    <title>noteIcon</title>
    <g id="Baquara" stroke="none" stroke-width="1" fill="none" fill-rule="evenodd" font-family="FontAwesome" font-weight="normal">
        <g id="Mobile---Baquara-cursoB-V4" transform="translate(-302.000000, -605.000000)" fill="#FFFFFF">
            <g id="Group-2" transform="translate(290.000000, 588.000000)">
                <g id="noteIcon" transform="translate(12.000000, 17.000000)">
                    <text id="pencil---FontAwesome-Copy" font-size="22">
                        <tspan x="11.0714286" y="19"></tspan>
                    </text>
                    <text id="plus---FontAwesome" font-size="14">
                        <tspan x="0" y="12"></tspan>
                    </text>
                </g>
            </g>
        </g>
    </g>
</svg>