<?xml version="1.0" encoding="UTF-8" standalone="no"?>
<svg
   width="32"
   height="32"
   viewBox="0 0 32 32"
   fill="none"
   version="1.1"
   id="svg6"
   xmlns="http://www.w3.org/2000/svg"
   xmlns:svg="http://www.w3.org/2000/svg">
  <defs
     id="defs10" />
  <path
     d="M27 0H5C2.23858 0 0 2.23858 0 5V27C0 29.7614 2.23858 32 5 32H27C29.7614 32 32 29.7614 32 27V5C32 2.23858 29.7614 0 27 0Z"
     fill="#2867B2"
     id="path2" />
  <path
     d="M 10.5,26 H 6.25 V 12.625 H 10.5 Z M 8.375,10.75 C 7,10.75 6,9.75 6,8.375 6,7 7.125,6 8.375,6 9.75,6 10.75,7 10.75,8.375 c 0,1.375 -1,2.375 -2.375,2.375 z M 26,26 h -4.25 v -7.25 c 0,-2.125 -0.875,-2.75 -2.125,-2.75 -1.25,0 -2.5,1 -2.5,2.875 V 26 h -4.25 V 12.625 h 4 V 14.5 c 0.375,-0.875 1.875,-2.25 4,-2.25 2.375,0 4.875,1.375 4.875,5.5 V 26 Z"
     fill="#ffffff"
     id="path4"
     style="stroke-width:1" />
</svg>
