<?xml version="1.0" encoding="UTF-8" standalone="no"?>
<svg
   width="32"
   height="32"
   viewBox="0 0 32 32"
   fill="none"
   version="1.1"
   id="svg924"
   xmlns="http://www.w3.org/2000/svg"
   xmlns:svg="http://www.w3.org/2000/svg">
  <defs
     id="defs928" />
  <path
     d="M 2.527936,18.663387 C 2.3665115,18.539654 2.2682608,18.457165 2.1594762,18.381454 1.5488624,17.955261 1.2400453,17.388005 1.2470636,16.642024 c 0.010528,-1.0588 0.014037,-2.121086 0,-3.183275 -0.010528,-0.721971 0.2807419,-1.268508 0.8457341,-1.71203 3.8671961,-3.0491925 7.7273831,-6.1053066 11.5910353,-9.1579739 0.870296,-0.6875328 1.740592,-1.3819492 2.617955,-2.06605265 0.807074,-0.63253524 1.530013,-0.69097354 2.403794,-0.1753207 3.604046,2.12449475 7.201023,4.25929975 10.808554,6.37691945 0.740463,0.4365809 1.073806,1.0553632 1.080874,1.8735323 0.007,1.0038086 0,2.0076065 0,3.0114135 0,0.818208 -0.347479,1.460982 -1.087942,1.93539 0.161492,0.116956 0.291325,0.213192 0.421158,0.309429 0.543922,0.402182 0.82818,0.931582 0.824694,1.605434 -0.0036,1.062189 -0.01055,2.120989 0,3.183275 0.01046,0.732234 -0.259762,1.302878 -0.845801,1.770412 -4.137415,3.265763 -8.264276,6.541886 -12.391138,9.81462 -0.449235,0.357452 -0.898373,0.715 -1.354579,1.069063 -1.101884,0.856064 -2.154681,0.931679 -3.37236,0.220067 -2.25298,-1.316626 -4.4989035,-2.647 -6.7483311,-3.970597 C 4.9002061,26.87606 3.7631964,26.195333 2.6121578,25.538811 1.7980115,25.074666 1.4190131,24.394037 1.4295411,23.479592 c 0.00702,-0.756341 0.024562,-1.516071 -0.00351,-2.272315 -0.038602,-1.007293 0.077206,-1.938875 1.0984026,-2.54389 z m 0.2842572,-4.51026 c 0,0.883463 -0.024572,1.643193 0.017534,2.396048 0.010534,0.199445 0.1789776,0.467534 0.3544406,0.57413 3.4215241,2.055734 6.8535722,4.087457 10.2821152,6.132831 0.512361,0.305945 0.982605,0.27506 1.442296,-0.08249 0.466759,-0.367811 0.933518,-0.732234 1.40018,-1.100045 4.098881,-3.248627 8.201151,-6.497254 12.29645,-9.752754 0.168463,-0.134093 0.368489,-0.343801 0.379042,-0.5294 0.04212,-0.763216 0.01752,-1.529819 0.01752,-2.3857666 -0.238656,0.1753275 -0.39308,0.2819143 -0.536952,0.3953848 -4.253208,3.3654858 -8.502932,6.7309718 -12.756141,10.0964578 -1.028206,0.814722 -1.701961,0.86284 -2.845961,0.189085 C 9.8377198,18.302448 6.8127426,16.518289 3.7877554,14.734129 3.4964885,14.56218 3.2017072,14.390329 2.808675,14.159999 Z m 26.4246558,2.262052 c -0.196443,0.133996 -0.294713,0.192474 -0.38243,0.261215 -4.281287,3.389594 -8.559087,6.775702 -12.836888,10.168684 -1.08436,0.859452 -1.740592,0.907571 -2.93726,0.199445 C 10.121972,25.301608 7.1671771,23.555207 4.2088781,21.812292 3.8684762,21.612944 3.5210549,21.423858 3.0753829,21.172906 c 0,0.811334 0.017553,1.522849 -0.00701,2.23446 -0.014039,0.409152 0.1473858,0.656619 0.5053312,0.866326 3.3302829,1.942263 6.6500329,3.905246 9.9733259,5.857868 0.807073,0.474408 1.066836,0.446815 1.810784,-0.144452 1.768669,-1.405989 3.540823,-2.808589 5.312977,-4.21119 2.656489,-2.103852 5.320045,-4.204219 7.965981,-6.321819 0.249209,-0.199445 0.536952,-0.501904 0.572,-0.783838 0.08075,-0.704737 0.02808,-1.426611 0.02808,-2.248207 z m -7.811556,-5.60343 c 0.214064,-0.106597 0.442167,-0.175338 0.614116,-0.30943 0.61063,-0.464145 1.214193,-0.9350572 1.796746,-1.4266504 C 24.425679,8.5772013 24.366039,8.0031004 23.695769,7.6008996 21.86746,6.5145837 20.032084,5.4420257 18.203775,4.3522825 17.737016,4.0738247 17.344033,4.1288269 16.940496,4.462287 c -0.529884,0.4365905 -1.073904,0.8594232 -1.614341,1.2891299 -0.722843,0.5775379 -0.69128,1.131007 0.105338,1.6054048 1.796746,1.062247 3.596977,2.1210578 5.400694,3.1763823 0.179016,0.103207 0.375556,0.182211 0.589621,0.285322 z"
     fill="#FDFDFD"
     id="path922"
     style="fill:#ffffff;stroke-width:1" />
</svg>
