<svg width="31" height="33" viewBox="0 0 31 33" fill="none" xmlns="http://www.w3.org/2000/svg">
<g clip-path="url(#clip0_643_1475)">
<path d="M20.6755 25.4017V25.2192L20.7823 19.5578H20.3293V5.88105C18.8891 5.16593 17.272 4.76367 15.5629 4.76367C14.2663 4.76367 13.0213 4.9946 11.8647 5.4192V11.1737C11.8647 12.1831 11.1538 13.0025 10.2734 13.0248L10.4687 25.2974V25.4166C11.9899 26.236 13.7212 26.7016 15.5592 26.7016C17.3973 26.7016 19.1506 26.2286 20.6755 25.4017Z" fill="black"/>
<path d="M10.5273 9.44552H11.334V5.63525C11.0578 5.74699 10.7926 5.88108 10.5273 6.01889V9.44925V9.44552Z" fill="black"/>
<path d="M31 15.6731C31 7.01716 24.0604 0 15.5 0C6.93964 0 0 7.01716 0 15.6731C0 21.8113 3.49192 27.1226 8.5751 29.6963L8.65613 24.6643C6.03351 22.586 4.3428 19.3568 4.3428 15.7327C4.3428 12.8052 5.44784 10.1309 7.25273 8.11592V4.0114C7.25273 3.84379 7.3706 3.70971 7.51794 3.70971C7.66528 3.70971 7.78315 3.84379 7.78315 4.0114V7.57212C8.04099 7.32257 8.30989 7.0842 8.58983 6.857V4.00768C8.58983 3.84007 8.7077 3.70598 8.85504 3.70598C9.00238 3.70598 9.12025 3.84007 9.12025 4.00768V6.45474C9.40756 6.24989 9.70223 6.05993 10.008 5.88115V4.00395C10.008 3.83634 10.1258 3.70226 10.2732 3.70226C10.4205 3.70226 10.5384 3.83634 10.5384 4.00395V5.59436C10.7999 5.46027 11.0688 5.33736 11.3451 5.2219V4.00395C11.3451 3.83634 11.4629 3.70226 11.6103 3.70226C11.7576 3.70226 11.8755 3.83634 11.8755 4.00395V5.02077C13.0358 4.61106 14.2771 4.38386 15.5737 4.38386C17.2791 4.38386 18.8925 4.77122 20.3401 5.46027V2.53646C22.0271 2.53646 23.3973 3.92201 23.3973 5.62788V7.61682C25.4895 9.67652 26.7898 12.5556 26.7898 15.7327C26.7898 19.2376 25.2096 22.3737 22.7306 24.4558L22.8227 29.4951C27.6996 26.8544 31.0147 21.6549 31.0147 15.6731H31Z" fill="black"/>
<path d="M23.3823 19.5579H22.6309L22.7082 23.763V23.9716C24.9772 21.9603 26.4101 19.0142 26.4101 15.7328C26.4101 12.7903 25.2572 10.1161 23.386 8.14575V19.5579H23.3823Z" fill="black"/>
<path d="M10.001 9.44556V6.31689C9.69527 6.50312 9.39691 6.70053 9.11328 6.91656V9.44929H10.001V9.44556Z" fill="black"/>
<path d="M8.84402 13.025C7.96368 13.0026 7.25277 12.1869 7.25277 11.1738V8.68579C5.66888 10.5928 4.71118 13.051 4.71118 15.7327C4.71118 19.137 6.25087 22.1838 8.66722 24.195V24.0833L8.84771 13.0212L8.84402 13.025Z" fill="black"/>
<path d="M8.58622 9.44553V7.3374C8.30628 7.57578 8.03738 7.82905 7.77954 8.09722V9.44553H8.58622Z" fill="black"/>
<path d="M15.559 27.0742C13.732 27.0742 12.0045 26.6273 10.4758 25.8377L10.5495 30.5269C12.1039 31.0558 13.7688 31.3463 15.5001 31.3463C17.2313 31.3463 18.9883 31.0372 20.5832 30.4785L20.668 25.8228C19.1356 26.6198 17.4007 27.0742 15.559 27.0742Z" fill="black"/>
<path d="M8.54219 31.8305C8.53114 32.4711 8.98421 32.9963 9.54409 32.9963H9.56988C10.1298 32.9963 10.5828 32.4711 10.5718 31.8305L10.5497 30.5269C9.86824 30.2959 9.2089 30.0166 8.57534 29.6963L8.54219 31.8305Z" fill="black"/>
<path d="M20.5578 31.8304C20.5467 32.4711 21.0551 32.9962 21.6923 32.9962H21.7181C22.3516 32.9962 22.8636 32.4711 22.8526 31.8304L22.8121 29.4951C22.1012 29.8788 21.3571 30.2102 20.5873 30.4784L20.5615 31.8304H20.5578Z" fill="black"/>
</g>
<defs>
<clipPath id="clip0_643_1475">
<rect width="31" height="33" fill="white"/>
</clipPath>
</defs>
</svg>
